<?xml version="1.0" encoding="utf-8"?>
<!-- Generator: Adobe Illustrator 19.0.0, SVG Export Plug-In . SVG Version: 6.00 Build 0)  -->
<svg version="1.1" id="Layer_1" xmlns="http://www.w3.org/2000/svg" xmlns:xlink="http://www.w3.org/1999/xlink" x="0px" y="0px"
	 viewBox="-101 58.7 24 24" style="enable-background:new -101 58.7 24 24;" xml:space="preserve">
<style type="text/css">
	.st0{fill:#FFFFFF;}
</style>
<path class="st0" d="M-93,71c0,0.3,0.1,0.5,0.3,0.7l6,6c0.4,0.4,1,0.4,1.4,0s0.4-1,0-1.4l-5.3-5.3l5.3-5.3c0.4-0.4,0.4-1,0-1.4
	c-0.4-0.4-1-0.4-1.4,0l-6,6C-92.9,70.5-93,70.7-93,71z"/>
</svg>
